[
  {
    "_id": 1,
    "name":"Pavan",
    "email":"a@a.com",
    "phone":"123456789"
  },
  {
    "_id": 2,
    "name":"Anvesh",
    "email":"b@a.com",
    "phone":"987654321"
  },
  {
    "_id": 3,
    "name":"Leela",
    "email":"c@a.com",
    "phone":"3456743231"
  },
  {
    "_id": 4,
    "name":"Venkatasandeep",
    "email":"d@a.com",
    "phone":"2345234534"
  }
]